%!PS-Adobe-2.0 EPSF-2.0
%%BoundingBox:  0 0 567 504
%%Title: : SignComp
%%Creator: ROOT Version 5.34/05
%%CreationDate: Wed Apr 17 05:34:25 2013
%%EndComments
%%BeginProlog
80 dict begin
/s {stroke} def /l {lineto} def /m {moveto} def /t {translate} def
/r {rotate} def /rl {roll}  def /R {repeat} def
/d {rlineto} def /rm {rmoveto} def /gr {grestore} def /f {eofill} def
/c {setrgbcolor} def /black {0 setgray} def /sd {setdash} def
/cl {closepath} def /sf {scalefont setfont} def /lw {setlinewidth} def
/box {m dup 0 exch d exch 0 d 0 exch neg d cl} def
/NC{systemdict begin initclip end}def/C{NC box clip newpath}def
/bl {box s} def /bf {box f} def /Y { 0 exch d} def /X { 0 d} def 
/K {{pop pop 0 moveto} exch kshow} bind def
/ita {/ang 15 def gsave [1 0 ang dup sin exch cos div 1 0 0] concat} def 
/mp {newpath /y exch def /x exch def} def
/side {[w .77 mul w .23 mul] .385 w mul sd w 0 l currentpoint t -144 r} def
/mr {mp x y w2 0 360 arc} def /m24 {mr s} def /m20 {mr f} def
/mb {mp x y w2 add m w2 neg 0 d 0 w neg d w 0 d 0 w d cl} def
/mt {mp x y w2 add m w2 neg w neg d w 0 d cl} def
/m21 {mb f} def /m25 {mb s} def /m22 {mt f} def /m26{mt s} def
/m23 {mp x y w2 sub m w2 w d w neg 0 d cl f} def
/m27 {mp x y w2 add m w3 neg w2 neg d w3 w2 neg d w3 w2 d cl s} def
/m28 {mp x w2 sub y w2 sub w3 add m w3 0 d  0 w3 neg d w3 0 d 0 w3 d w3 0 d  0 w3 d w3 neg 0 d 0 w3 d w3 neg 0 d 0 w3 neg d w3 neg 0 d cl s } def
/m29 {mp gsave x w2 sub y w2 add w3 sub m currentpoint t 4 {side} repeat cl fill gr} def
/m30 {mp gsave x w2 sub y w2 add w3 sub m currentpoint t 4 {side} repeat cl s gr} def
/m31 {mp x y w2 sub m 0 w d x w2 sub y m w 0 d x w2 sub y w2 add m w w neg d x w2 sub y w2 sub m w w d s} def
/m32 {mp x y w2 sub m w2 w d w neg 0 d cl s} def
/m33 {mp x y w2 add m w3 neg w2 neg d w3 w2 neg d w3 w2 d cl f} def
/m34 {mp x w2 sub y w2 sub w3 add m w3 0 d  0 w3 neg d w3 0 d 0 w3 d w3 0 d  0 w3 d w3 neg 0 d 0 w3 d w3 neg 0 d 0 w3 neg d w3 neg 0 d cl f } def
/m2 {mp x y w2 sub m 0 w d x w2 sub y m w 0 d s} def
/m5 {mp x w2 sub y w2 sub m w w d x w2 sub y w2 add m w w neg d s} def
/reEncode {exch findfont dup length dict begin {1 index /FID eq  {pop pop} {def} ifelse } forall /Encoding exch def currentdict end dup /FontName get exch definefont pop } def [/Times-Bold /Times-Italic /Times-BoldItalic /Helvetica /Helvetica-Oblique
 /Helvetica-Bold /Helvetica-BoldOblique /Courier /Courier-Oblique /Courier-Bold /Courier-BoldOblique /Times-Roman /AvantGarde-Book /AvantGarde-BookOblique /AvantGarde-Demi /AvantGarde-DemiOblique /Bookman-Demi /Bookman-DemiItalic /Bookman-Light
 /Bookman-LightItalic /Helvetica-Narrow /Helvetica-Narrow-Bold /Helvetica-Narrow-BoldOblique /Helvetica-Narrow-Oblique /NewCenturySchlbk-Roman /NewCenturySchlbk-Bold /NewCenturySchlbk-BoldItalic /NewCenturySchlbk-Italic /Palatino-Bold
 /Palatino-BoldItalic /Palatino-Italic /Palatino-Roman ] {ISOLatin1Encoding reEncode } forall
%%EndProlog
%%BeginSetup
%%EndSetup
newpath  gsave  .25 .25 scale  gsave  0 0 t black[  ] 0 sd 3 lw 1 1 1 c 2268 2017 0 0 bf black 1 1 1 c 1814 1613 227 202 bf black 1814 1613 227 202 bl 1 1 1 c 1814 1613 227 202 bf black 1814 1613 227 202 bl 227 202 m 1814 X s
 gsave  2268 2017 0 0 C 1772.01 45.5822 t 0 r /Helvetica-Bold findfont 74.0711 sf 0 0 m (outBDT) show NC gr  378 250 m -48 Y s 455 226 m -24 Y s 533 226 m -24 Y s 611 226 m -24 Y s 688 226 m -24 Y s 766 250 m -48 Y s 843 226 m -24 Y s 921 226 m -24 Y
 s 998 226 m -24 Y s 1076 226 m -24 Y s 1153 250 m -48 Y s 1231 226 m -24 Y s 1308 226 m -24 Y s 1386 226 m -24 Y s 1463 226 m -24 Y s 1541 250 m -48 Y s 1618 226 m -24 Y s 1696 226 m -24 Y s 1773 226 m -24 Y s 1851 226 m -24 Y s 1929 250 m -48 Y s
 378 250 m -48 Y s 300 226 m -24 Y s 1929 250 m -48 Y s 2006 226 m -24 Y s
 gsave  2268 2017 0 0 C 347.565 128.2 t 0 r /Helvetica-Bold findfont 74.0711 sf 0 0 m (\2551) show NC gr 
 gsave  2268 2017 0 0 C 700.827 128.2 t 0 r /Helvetica-Bold findfont 74.0711 sf 0 0 m (\2550.5) show NC gr 
 gsave  2268 2017 0 0 C 1131.01 128.2 t 0 r /Helvetica-Bold findfont 74.0711 sf 0 0 m (0) show NC gr 
 gsave  2268 2017 0 0 C 1487.12 128.2 t 0 r /Helvetica-Bold findfont 74.0711 sf 0 0 m (0.5) show NC gr 
 gsave  2268 2017 0 0 C 1911.61 128.2 t 0 r /Helvetica-Bold findfont 74.0711 sf 0 0 m (1) show NC gr  227 202 m 1613 Y s
 gsave  2268 2017 0 0 C 99.7112 1376.01 t 90 r /Helvetica-Bold findfont 74.0711 sf 0 0 m (Significance) show NC gr  281 254 m -54 X s 254 289 m -27 X s 254 325 m -27 X s 254 361 m -27 X s 254 397 m -27 X s 281 433 m -54 X s 254 468 m -27 X s 254 504
 m -27 X s 254 540 m -27 X s 254 576 m -27 X s 281 611 m -54 X s 254 647 m -27 X s 254 683 m -27 X s 254 719 m -27 X s 254 755 m -27 X s 281 790 m -54 X s 254 826 m -27 X s 254 862 m -27 X s 254 898 m -27 X s 254 934 m -27 X s 281 969 m -54 X s 254
 1005 m -27 X s 254 1041 m -27 X s 254 1077 m -27 X s 254 1113 m -27 X s 281 1148 m -54 X s 254 1184 m -27 X s 254 1220 m -27 X s 254 1256 m -27 X s 254 1291 m -27 X s 281 1327 m -54 X s 254 1363 m -27 X s 254 1399 m -27 X s 254 1435 m -27 X s 254
 1470 m -27 X s 281 1506 m -54 X s 254 1542 m -27 X s 254 1578 m -27 X s 254 1614 m -27 X s 254 1649 m -27 X s 281 1685 m -54 X s 281 254 m -54 X s 254 218 m -27 X s 281 1685 m -54 X s 254 1721 m -27 X s 254 1757 m -27 X s 254 1793 m -27 X s
 gsave  2268 2017 0 0 C 113.956 227.911 t 0 r /Helvetica-Bold findfont 74.0711 sf 0 0 m (0.5) show NC gr 
 gsave  2268 2017 0 0 C 185.178 404.542 t 0 r /Helvetica-Bold findfont 74.0711 sf 0 0 m (1) show NC gr 
 gsave  2268 2017 0 0 C 113.956 584.022 t 0 r /Helvetica-Bold findfont 74.0711 sf 0 0 m (1.5) show NC gr 
 gsave  2268 2017 0 0 C 173.782 763.503 t 0 r /Helvetica-Bold findfont 74.0711 sf 0 0 m (2) show NC gr 
 gsave  2268 2017 0 0 C 113.956 942.983 t 0 r /Helvetica-Bold findfont 74.0711 sf 0 0 m (2.5) show NC gr 
 gsave  2268 2017 0 0 C 173.782 1122.46 t 0 r /Helvetica-Bold findfont 74.0711 sf 0 0 m (3) show NC gr 
 gsave  2268 2017 0 0 C 113.956 1299.09 t 0 r /Helvetica-Bold findfont 74.0711 sf 0 0 m (3.5) show NC gr 
 gsave  2268 2017 0 0 C 173.782 1478.57 t 0 r /Helvetica-Bold findfont 74.0711 sf 0 0 m (4) show NC gr 
 gsave  2268 2017 0 0 C 113.956 1658.05 t 0 r /Helvetica-Bold findfont 74.0711 sf 0 0 m (4.5) show NC gr  0.8 0 1 c black 0.8 0 1 c 378 1457 m 28 2 d 11 1 d 30 9 d 8 3 d 39 16 d 39 19 d 39 18 d 39 18 d 38 17 d 39 16 d 39 15 d 39 15 d 38 12 d 39 13 d
 39 11 d 39 9 d 38 10 d 39 6 d 39 6 d 39 4 d 38 3 d 39 1 d 39 -2 d 39 -4 d 39 -4 d 38 -8 d 39 -11 d 39 -12 d 39 -16 d 32 -17 d 6 -4 d 26 -19 d 13 -12 d 25 -23 d 14 -16 d 24 -30 d 15 -20 d 19 -32 d 19 -38 d 24 -46 d 11 -26 d 4 -10 d 12 -32 d 13 -42 d
 14 -48 d 16 -57 d 23 -88 d 23 -91 d 15 -66 d 15 -65 d 24 -115 d 28 -132 d 11 -55 d 19 -96 d 20 -108 d s /w 23 def /w2 {w 2 div} def /w3 {w 3 div} def 378 1457 417 1460 455 1472 494 1488 533 1507 572 1525 611 1543 649 1560 688 1576 727 1591 766 1606
 804 1618 843 1631 882 1642 921 1651 959 1661 998 1667 1037 1673 1076 1677 1114 1680 1153 1681 1192 1679 1231 1675 1270 1671 1308 1663 1347 1652 1386 1640 1425 1624 1463 1603 1502 1572 1541 1533 1580 1483 1618 1413 1657 1331 1696 1209 1735 1064 1773
 907 1812 727 1851 540 1890 336 40 { m31} R black 378 1458 m 25 2 d 14 3 d 28 9 d 10 4 d 39 18 d 39 20 d 39 19 d 39 19 d 38 16 d 39 17 d 39 16 d 39 12 d 38 14 d 39 12 d 39 12 d 39 10 d 38 6 d 39 6 d 39 8 d 39 4 d 38 6 d 39 4 d 39 -3 d 39 X 39 -4 d 38
 -4 d 39 -12 d 36 -9 d 3 -1 d 39 -20 d 38 -19 d 25 -16 d 14 -11 d 21 -20 d 18 -18 d 31 -34 d 8 -9 d 27 -33 d 11 -16 d 13 -24 d 21 -42 d 5 -12 d 22 -48 d 13 -33 d 4 -11 d 13 -38 d 19 -61 d 7 -24 d 20 -70 d 13 -49 d 5 -21 d 14 -57 d 13 -56 d 12 -57 d
 10 -46 d 29 -157 d 29 -157 d 10 -53 d s 378 1458 417 1463 455 1476 494 1494 533 1514 572 1533 611 1552 649 1568 688 1585 727 1601 766 1613 804 1627 843 1639 882 1651 921 1661 959 1667 998 1673 1037 1681 1076 1685 1114 1691 1153 1695 1192 1692 1231
 1692 1270 1688 1308 1684 1347 1672 1386 1662 1425 1642 1463 1623 1502 1596 1541 1558 1580 1515 1618 1466 1657 1388 1696 1296 1735 1173 1773 1033 1812 863 1851 660 1890 450 40 { m22} R
 gr  gr showpage
end
%%EOF
